x-axis,1
second,Volt
-25.00000E-06,
-24.95000E-06,-44.20100478E-03
-24.90000E-06,+4.04020073E-03
-24.85000E-06,+60.32160716E-03
-24.80000E-06,+100.52261176E-03
-24.75000E-06,+145.24622937E-03
-24.70000E-06,+164.84421911E-03
-24.65000E-06,+172.88442003E-03
-24.60000E-06,+167.85929445E-03
-24.55000E-06,+148.76381727E-03
-24.50000E-06,+113.08542569E-03
-24.45000E-06,+56.80401926E-03
-24.40000E-06,-15.05527645E-03
-24.35000E-06,-95.45728564E-03
-24.30000E-06,-172.84421949E-03
-24.25000E-06,-221.08542500E-03
-24.20000E-06,-253.24622868E-03
-24.15000E-06,-269.32663051E-03
-24.10000E-06,-265.80904261E-03
-24.05000E-06,-229.12562592E-03
-24.00000E-06,-180.88442041E-03
-23.95000E-06,-95.45728564E-03
-23.90000E-06,+4.04020073E-03
-23.85000E-06,+108.56281267E-03
-23.80000E-06,+208.06029905E-03
-23.75000E-06,+285.44723289E-03
-23.70000E-06,+325.64823749E-03
-23.65000E-06,+341.72863932E-03
-23.60000E-06,+328.66331283E-03
-23.55000E-06,+281.92964499E-03
-23.50000E-06,+213.08542462E-03
-23.45000E-06,+108.56281267E-03
-23.40000E-06,-15.05527645E-03
-23.35000E-06,-143.69849116E-03
-23.30000E-06,-264.30150494E-03
-23.25000E-06,-344.70351413E-03
-23.20000E-06,-397.96984522E-03
-23.15000E-06,-414.05024705E-03
-23.10000E-06,-402.49245823E-03
-23.05000E-06,-352.74371505E-03
-23.00000E-06,-265.80904261E-03
-22.95000E-06,-148.72361673E-03
-22.90000E-06,-8.52261321E-03
-22.85000E-06,+135.69849078E-03
-22.80000E-06,+264.34170548E-03
-22.75000E-06,+368.86431742E-03
-22.70000E-06,+426.65326153E-03
-22.65000E-06,+449.26632661E-03
-22.60000E-06,+438.21105035E-03
-22.55000E-06,+389.96984484E-03
-22.50000E-06,+288.46230824E-03
-22.45000E-06,+156.80401819E-03
-22.40000E-06,+15.09547699E-03
-22.35000E-06,-140.68341581E-03
-22.30000E-06,-277.36683143E-03
-22.25000E-06,-384.90451872E-03
-22.20000E-06,-454.25125165E-03
-22.15000E-06,-486.41205532E-03
-22.10000E-06,-478.37185441E-03
-22.05000E-06,-433.14572424E-03
-22.00000E-06,-349.72863970E-03
-21.95000E-06,-221.08542500E-03
-21.90000E-06,-69.32663266E-03
-21.85000E-06,+71.37688342E-03
-21.80000E-06,+217.60803764E-03
-21.75000E-06,+336.70351375E-03
-21.70000E-06,+425.14572386E-03
-21.65000E-06,+473.38692937E-03
-21.60000E-06,+478.41205494E-03
-21.55000E-06,+454.29145219E-03
-21.50000E-06,+373.88944300E-03
-21.45000E-06,+262.33165525E-03
-21.40000E-06,+116.60301359E-03
-21.35000E-06,-39.17587921E-03
-21.30000E-06,-188.92462132E-03
-21.25000E-06,-309.52763511E-03
-21.20000E-06,-397.96984522E-03
-21.15000E-06,-470.33165349E-03
-21.10000E-06,-489.42713067E-03
-21.05000E-06,-470.33165349E-03
-21.00000E-06,-422.09044797E-03
-20.95000E-06,-333.64823787E-03
-20.90000E-06,-209.52763618E-03
-20.85000E-06,-60.28140662E-03
-20.80000E-06,+80.92462202E-03
-20.75000E-06,+213.08542462E-03
-20.70000E-06,+320.62311191E-03
-20.65000E-06,+402.53265877E-03
-20.60000E-06,+438.21105035E-03
-20.55000E-06,+446.25125127E-03
-20.50000E-06,+414.09044759E-03
-20.45000E-06,+357.80904116E-03
-20.40000E-06,+261.32663013E-03
-20.35000E-06,+140.72361635E-03
-20.30000E-06,-984.92485E-06
-20.25000E-06,-135.65829024E-03
-20.20000E-06,-248.22110310E-03
-20.15000E-06,-328.62311229E-03
-20.10000E-06,-378.37185548E-03
-20.05000E-06,-406.01004614E-03
-20.00000E-06,-392.94471964E-03
-19.95000E-06,-365.80904154E-03
-19.90000E-06,-317.56783603E-03
-19.85000E-06,-229.12562592E-03
-19.80000E-06,-116.56281305E-03
-19.75000E-06,+4.04020073E-03
-19.70000E-06,+103.53768710E-03
-19.65000E-06,+188.96482186E-03
-19.60000E-06,+241.72864039E-03
-19.55000E-06,+289.96984591E-03
-19.50000E-06,+301.52763473E-03
-19.45000E-06,+293.48743381E-03
-19.40000E-06,+277.40703197E-03
-19.35000E-06,+229.16582646E-03
-19.30000E-06,+161.32663121E-03
-19.25000E-06,+76.40200900E-03
-19.20000E-06,-984.92485E-06
-19.15000E-06,-76.36180846E-03
-19.10000E-06,-143.69849116E-03
-19.05000E-06,-183.89949575E-03
-19.00000E-06,-196.96482224E-03
-18.95000E-06,-205.00502316E-03
-18.90000E-06,-205.00502316E-03
-18.85000E-06,-183.89949575E-03
-18.80000E-06,-156.76381765E-03
-18.75000E-06,-116.56281305E-03
-18.70000E-06,-64.80401964E-03
-18.65000E-06,-12.04020111E-03
-18.60000E-06,+39.21607975E-03
-18.55000E-06,+76.40200900E-03
-18.50000E-06,+92.48241084E-03
-18.45000E-06,+100.52261176E-03
-18.40000E-06,+100.52261176E-03
-18.35000E-06,+92.48241084E-03
-18.30000E-06,+84.44220992E-03
-18.25000E-06,+71.37688342E-03
-18.20000E-06,+52.28140624E-03
-18.15000E-06,+15.09547699E-03
-18.10000E-06,-8.52261321E-03
-18.05000E-06,-36.16080387E-03
-18.00000E-06,-44.20100478E-03
-17.95000E-06,-40.68341688E-03
-17.90000E-06,-44.20100478E-03
-17.85000E-06,-44.20100478E-03
-17.80000E-06,-44.20100478E-03
-17.75000E-06,-31.13567829E-03
-17.70000E-06,-21.08542714E-03
-17.65000E-06,-12.04020111E-03
-17.60000E-06,-4.00000019E-03
-17.55000E-06,+4.04020073E-03
-17.50000E-06,+15.09547699E-03
-17.45000E-06,+12.08040165E-03
-17.40000E-06,+8.56281375E-03
-17.35000E-06,+16.60301466E-03
-17.30000E-06,+4.04020073E-03
-17.25000E-06,+522.61283E-06
-17.20000E-06,-4.00000019E-03
-17.15000E-06,-8.52261321E-03
-17.10000E-06,-12.04020111E-03
-17.05000E-06,-12.04020111E-03
-17.00000E-06,-12.04020111E-03
-16.95000E-06,-12.04020111E-03
-16.90000E-06,-8.52261321E-03
-16.85000E-06,-4.00000019E-03
-16.80000E-06,+4.04020073E-03
-16.75000E-06,+7.05527607E-03
-16.70000E-06,+12.08040165E-03
-16.65000E-06,+8.56281375E-03
-16.60000E-06,+7.05527607E-03
-16.55000E-06,-4.00000019E-03
-16.50000E-06,-20.08040203E-03
-16.45000E-06,-16.56281413E-03
-16.40000E-06,-28.12060295E-03
-16.35000E-06,-32.64321596E-03
-16.30000E-06,-36.16080387E-03
-16.25000E-06,-44.20100478E-03
-16.20000E-06,-40.68341688E-03
-16.15000E-06,-31.13567829E-03
-16.10000E-06,-28.12060295E-03
-16.05000E-06,-12.04020111E-03
-16.00000E-06,+5.04522584E-03
-15.95000E-06,+20.12060257E-03
-15.90000E-06,+31.17587883E-03
-15.85000E-06,+44.24120532E-03
-15.80000E-06,+52.28140624E-03
-15.75000E-06,+55.29648159E-03
-15.70000E-06,+52.28140624E-03
-15.65000E-06,+39.21607975E-03
-15.60000E-06,+28.16080349E-03
-15.55000E-06,-4.00000019E-03
-15.50000E-06,-36.16080387E-03
-15.45000E-06,-76.36180846E-03
-15.40000E-06,-100.48241122E-03
-15.35000E-06,-124.60301397E-03
-15.30000E-06,-132.64321489E-03
-15.25000E-06,-135.65829024E-03
-15.20000E-06,-132.64321489E-03
-15.15000E-06,-109.52763725E-03
-15.10000E-06,-76.36180846E-03
-15.05000E-06,-24.60301504E-03
-15.00000E-06,+28.16080349E-03
-14.95000E-06,+87.45728526E-03
-14.90000E-06,+132.68341543E-03
-14.85000E-06,+156.80401819E-03
-14.80000E-06,+169.36683212E-03
-14.75000E-06,+180.92462095E-03
-14.70000E-06,+164.84421911E-03
-14.65000E-06,+140.72361635E-03
-14.60000E-06,+79.41708434E-03
-14.55000E-06,+522.61283E-06
-14.50000E-06,-87.41708472E-03
-14.45000E-06,-164.80401857E-03
-14.40000E-06,-232.14070126E-03
-14.35000E-06,-269.32663051E-03
-14.30000E-06,-285.40703235E-03
-14.25000E-06,-293.44723327E-03
-14.20000E-06,-264.30150494E-03
-14.15000E-06,-213.04522408E-03
-14.10000E-06,-129.12562699E-03
-14.05000E-06,-24.60301504E-03
-14.00000E-06,+92.48241084E-03
-13.95000E-06,+188.96482186E-03
-13.90000E-06,+272.38190640E-03
-13.85000E-06,+314.09044866E-03
-13.80000E-06,+330.17085050E-03
-13.75000E-06,+328.66331283E-03
-13.70000E-06,+296.50250915E-03
-13.65000E-06,+229.16582646E-03
-13.60000E-06,+113.08542569E-03
-13.55000E-06,-15.05527645E-03
-13.50000E-06,-145.20602883E-03
-13.45000E-06,-264.30150494E-03
-13.40000E-06,-352.74371505E-03
-13.35000E-06,-406.01004614E-03
-13.30000E-06,-438.17084981E-03
-13.25000E-06,-434.65326191E-03
-13.20000E-06,-378.37185548E-03
-13.15000E-06,-293.44723327E-03
-13.10000E-06,-169.32663159E-03
-13.05000E-06,-24.60301504E-03
-13.00000E-06,+116.60301359E-03
-12.95000E-06,+245.24622830E-03
-12.90000E-06,+349.76884024E-03
-12.85000E-06,+414.09044759E-03
-12.80000E-06,+438.21105035E-03
-12.75000E-06,+438.21105035E-03
-12.70000E-06,+384.94471926E-03
-12.65000E-06,+298.01004683E-03
-12.60000E-06,+172.88442003E-03
-12.55000E-06,+28.16080349E-03
-12.50000E-06,-121.08542607E-03
-12.45000E-06,-265.80904261E-03
-12.40000E-06,-381.88944338E-03
-12.35000E-06,-457.26632699E-03
-12.30000E-06,-497.46733159E-03
-12.25000E-06,-494.45225624E-03
-12.20000E-06,-458.77386467E-03
-12.15000E-06,-365.80904154E-03
-12.10000E-06,-249.72864077E-03
-12.05000E-06,-103.49748656E-03
-12.00000E-06,+55.29648159E-03
-11.95000E-06,+197.00502278E-03
-11.90000E-06,+320.62311191E-03
-11.85000E-06,+406.05024667E-03
-11.80000E-06,+454.29145219E-03
-11.75000E-06,+470.37185403E-03
-11.70000E-06,+438.21105035E-03
-11.65000E-06,+381.92964392E-03
-11.60000E-06,+272.38190640E-03
-11.55000E-06,+135.69849078E-03
-11.50000E-06,-15.05527645E-03
-11.45000E-06,-164.80401857E-03
-11.40000E-06,-289.92964537E-03
-11.35000E-06,-394.45225731E-03
-11.30000E-06,-462.29145257E-03
-11.25000E-06,-494.45225624E-03
-11.20000E-06,-481.38692975E-03
-11.15000E-06,-442.69346283E-03
-11.10000E-06,-362.29145364E-03
-11.05000E-06,-237.16582684E-03
-11.00000E-06,-96.96482331E-03
-10.95000E-06,+52.28140624E-03
-10.90000E-06,+180.92462095E-03
-10.85000E-06,+288.46230824E-03
-10.80000E-06,+365.84924208E-03
-10.75000E-06,+410.57285969E-03
-10.70000E-06,+422.13064851E-03
-10.65000E-06,+414.09044759E-03
-10.60000E-06,+362.33165418E-03
-10.55000E-06,+278.41205709E-03
-10.50000E-06,+156.80401819E-03
-10.45000E-06,+24.64321558E-03
-10.40000E-06,-103.49748656E-03
-10.35000E-06,-213.04522408E-03
-10.30000E-06,-304.50250953E-03
-10.25000E-06,-360.78391597E-03
-10.20000E-06,-394.45225731E-03
-10.15000E-06,-402.49245823E-03
-10.10000E-06,-378.37185548E-03
-10.05000E-06,-341.68843878E-03
-10.00000E-06,-259.77889192E-03
-9.95000E-06,-156.76381765E-03
-9.90000E-06,-52.24120570E-03
-9.85000E-06,+63.33668251E-03
-9.80000E-06,+156.80401819E-03
-9.75000E-06,+213.08542462E-03
-9.70000E-06,+256.30150456E-03
-9.65000E-06,+272.38190640E-03
-9.60000E-06,+280.42210732E-03
-9.55000E-06,+269.36683105E-03
-9.50000E-06,+238.21105249E-03
-9.45000E-06,+180.92462095E-03
-9.40000E-06,+111.57788802E-03
-9.35000E-06,+28.16080349E-03
-9.30000E-06,-44.20100478E-03
-9.25000E-06,-116.56281305E-03
-9.20000E-06,-156.76381765E-03
-9.15000E-06,-180.88442041E-03
-9.10000E-06,-196.96482224E-03
-9.05000E-06,-201.48743526E-03
-9.00000E-06,-199.97989759E-03
-8.95000E-06,-183.89949575E-03
-8.90000E-06,-140.68341581E-03
-8.85000E-06,-105.00502423E-03
-8.80000E-06,-52.24120570E-03
-8.75000E-06,-4.00000019E-03
-8.70000E-06,+28.16080349E-03
-8.65000E-06,+52.28140624E-03
-8.60000E-06,+68.36180808E-03
-8.55000E-06,+79.41708434E-03
-8.50000E-06,+84.44220992E-03
-8.45000E-06,+76.40200900E-03
-8.40000E-06,+72.88442110E-03
-8.35000E-06,+52.28140624E-03
-8.30000E-06,+36.20100440E-03
-8.25000E-06,+16.60301466E-03
-8.20000E-06,-15.05527645E-03
-8.15000E-06,-28.12060295E-03
-8.10000E-06,-44.20100478E-03
-8.05000E-06,-55.25628105E-03
-8.00000E-06,-52.24120570E-03
-7.95000E-06,-52.24120570E-03
-7.90000E-06,-56.76381872E-03
-7.85000E-06,-50.73366803E-03
-7.80000E-06,-47.21608013E-03
-7.75000E-06,-40.68341688E-03
-7.70000E-06,-24.60301504E-03
-7.65000E-06,-20.08040203E-03
-7.60000E-06,-15.05527645E-03
-7.55000E-06,-12.04020111E-03
-7.50000E-06,-7.01507553E-03
-7.45000E-06,-4.00000019E-03
-7.40000E-06,+522.61283E-06
-7.35000E-06,+4.04020073E-03
-7.30000E-06,+5.04522584E-03
-7.25000E-06,+4.04020073E-03
-7.20000E-06,+8.56281375E-03
-7.15000E-06,+4.04020073E-03
-7.10000E-06,+8.56281375E-03
-7.05000E-06,+4.04020073E-03
-7.00000E-06,-4.00000019E-03
-6.95000E-06,-4.00000019E-03
-6.90000E-06,-12.04020111E-03
-6.85000E-06,-20.08040203E-03
-6.80000E-06,-23.09547737E-03
-6.75000E-06,-28.12060295E-03
-6.70000E-06,-39.17587921E-03
-6.65000E-06,-40.68341688E-03
-6.60000E-06,-44.20100478E-03
-6.55000E-06,-52.24120570E-03
-6.50000E-06,-52.24120570E-03
-6.45000E-06,-44.20100478E-03
-6.40000E-06,-36.16080387E-03
-6.35000E-06,-28.12060295E-03
-6.30000E-06,-20.08040203E-03
-6.25000E-06,-12.04020111E-03
-6.20000E-06,+15.09547699E-03
-6.15000E-06,+28.16080349E-03
-6.10000E-06,+44.24120532E-03
-6.05000E-06,+55.29648159E-03
-6.00000E-06,+61.32663228E-03
-5.95000E-06,+60.32160716E-03
-5.90000E-06,+48.76381834E-03
-5.85000E-06,+44.24120532E-03
-5.80000E-06,+28.16080349E-03
-5.75000E-06,+7.05527607E-03
-5.70000E-06,-28.12060295E-03
-5.65000E-06,-68.32160754E-03
-5.60000E-06,-92.44221030E-03
-5.55000E-06,-116.56281305E-03
-5.50000E-06,-129.12562699E-03
-5.45000E-06,-132.64321489E-03
-5.40000E-06,-129.12562699E-03
-5.35000E-06,-116.56281305E-03
-5.30000E-06,-92.44221030E-03
-5.25000E-06,-44.20100478E-03
-5.20000E-06,+8.56281375E-03
-5.15000E-06,+71.37688342E-03
-5.10000E-06,+121.12562661E-03
-5.05000E-06,+161.32663121E-03
-5.00000E-06,+180.92462095E-03
-4.95000E-06,+183.93969629E-03
-4.90000E-06,+188.96482186E-03
-4.85000E-06,+164.84421911E-03
-4.80000E-06,+127.65828986E-03
-4.75000E-06,+63.33668251E-03
-4.70000E-06,-20.08040203E-03
-4.65000E-06,-108.52261214E-03
-4.60000E-06,-185.40703342E-03
-4.55000E-06,-237.16582684E-03
-4.50000E-06,-277.36683143E-03
-4.45000E-06,-285.40703235E-03
-4.40000E-06,-285.40703235E-03
-4.35000E-06,-248.22110310E-03
-4.30000E-06,-196.96482224E-03
-4.25000E-06,-100.48241122E-03
-4.20000E-06,+8.56281375E-03
-4.15000E-06,+116.60301359E-03
-4.10000E-06,+213.08542462E-03
-4.05000E-06,+285.44723289E-03
-4.00000E-06,+336.70351375E-03
-3.95000E-06,+349.76884024E-03
-3.90000E-06,+349.76884024E-03
-3.85000E-06,+301.52763473E-03
-3.80000E-06,+221.12562554E-03
-3.75000E-06,+105.04522477E-03
-3.70000E-06,-23.09547737E-03
-3.65000E-06,-156.76381765E-03
-3.60000E-06,-269.32663051E-03
-3.55000E-06,-349.72863970E-03
-3.50000E-06,-414.05024705E-03
-3.45000E-06,-426.61306099E-03
-3.40000E-06,-422.09044797E-03
-3.35000E-06,-362.29145364E-03
-3.30000E-06,-269.32663051E-03
-3.25000E-06,-148.72361673E-03
-3.20000E-06,-4.00000019E-03
-3.15000E-06,+140.72361635E-03
-3.10000E-06,+269.36683105E-03
-3.05000E-06,+365.84924208E-03
-3.00000E-06,+433.18592478E-03
-2.95000E-06,+462.33165311E-03
-2.90000E-06,+446.25125127E-03
-2.85000E-06,+394.49245785E-03
-2.80000E-06,+301.52763473E-03
-2.75000E-06,+169.36683212E-03
-2.70000E-06,+12.08040165E-03
-2.65000E-06,-135.65829024E-03
-2.60000E-06,-277.36683143E-03
-2.55000E-06,-378.37185548E-03
-2.50000E-06,-454.25125165E-03
-2.45000E-06,-494.45225624E-03
-2.40000E-06,-478.37185441E-03
-2.35000E-06,-442.69346283E-03
-2.30000E-06,-349.72863970E-03
-2.25000E-06,-233.64823894E-03
-2.20000E-06,-87.41708472E-03
-2.15000E-06,+63.33668251E-03
-2.10000E-06,+221.12562554E-03
-2.05000E-06,+330.17085050E-03
-2.00000E-06,+422.13064851E-03
-1.95000E-06,+470.37185403E-03
-1.90000E-06,+478.41205494E-03
-1.85000E-06,+450.77386429E-03
-1.80000E-06,+378.41205602E-03
-1.75000E-06,+261.32663013E-03
-1.70000E-06,+132.68341543E-03
-1.65000E-06,-20.08040203E-03
-1.60000E-06,-172.84421949E-03
-1.55000E-06,-301.48743419E-03
-1.50000E-06,-392.94471964E-03
-1.45000E-06,-452.74371398E-03
-1.40000E-06,-478.37185441E-03
-1.35000E-06,-470.33165349E-03
-1.30000E-06,-430.13064889E-03
-1.25000E-06,-346.21105180E-03
-1.20000E-06,-217.56783710E-03
-1.15000E-06,-84.40200938E-03
-1.10000E-06,+58.81406949E-03
-1.05000E-06,+188.96482186E-03
-1.00000E-06,+301.52763473E-03
-950.00E-09,+381.92964392E-03
-900.00E-09,+425.14572386E-03
-850.00E-09,+431.17587455E-03
-800.00E-09,+415.09547271E-03
-750.00E-09,+357.80904116E-03
-700.00E-09,+269.36683105E-03
-650.00E-09,+148.76381727E-03
-600.00E-09,+20.12060257E-03
-550.00E-09,-111.53768748E-03
-500.00E-09,-221.08542500E-03
-450.00E-09,-309.52763511E-03
-400.00E-09,-365.80904154E-03
-350.00E-09,-381.88944338E-03
-300.00E-09,-386.41205640E-03
-250.00E-09,-365.80904154E-03
-200.00E-09,-312.54271045E-03
-150.00E-09,-237.16582684E-03
-100.00E-09,-137.16582791E-03
-50.00E-09,-36.16080387E-03
+0.0E+00,+76.40200900E-03
+50.00E-09,+156.80401819E-03
+100.00E-09,+221.12562554E-03
+150.00E-09,+256.30150456E-03
+200.00E-09,+272.38190640E-03
+250.00E-09,+272.38190640E-03
+300.00E-09,+253.28642922E-03
+350.00E-09,+221.12562554E-03
+400.00E-09,+169.36683212E-03
+450.00E-09,+92.48241084E-03
+500.00E-09,+20.12060257E-03
+550.00E-09,-53.24623082E-03
+600.00E-09,-111.53768748E-03
+650.00E-09,-153.24622975E-03
+700.00E-09,-169.32663159E-03
+750.00E-09,-177.36683250E-03
+800.00E-09,-175.85929483E-03
+850.00E-09,-156.76381765E-03
+900.00E-09,-143.69849116E-03
+950.00E-09,-108.52261214E-03
+1.00000E-06,-64.80401964E-03
+1.05000E-06,-20.08040203E-03
+1.10000E-06,+16.60301466E-03
+1.15000E-06,+48.76381834E-03
+1.20000E-06,+64.84422018E-03
+1.25000E-06,+80.92462202E-03
+1.30000E-06,+76.40200900E-03
+1.35000E-06,+72.88442110E-03
+1.40000E-06,+60.32160716E-03
+1.45000E-06,+47.25628067E-03
+1.50000E-06,+32.68341650E-03
+1.55000E-06,+12.08040165E-03
+1.60000E-06,-12.04020111E-03
+1.65000E-06,-28.12060295E-03
+1.70000E-06,-39.17587921E-03
+1.75000E-06,-44.20100478E-03
+1.80000E-06,-44.20100478E-03
+1.85000E-06,-47.21608013E-03
+1.90000E-06,-36.16080387E-03
+1.95000E-06,-39.17587921E-03
+2.00000E-06,-28.12060295E-03
+2.05000E-06,-16.56281413E-03
+2.10000E-06,-4.00000019E-03
+2.15000E-06,+4.04020073E-03
+2.20000E-06,+7.05527607E-03
+2.25000E-06,+12.08040165E-03
+2.30000E-06,+8.56281375E-03
+2.35000E-06,+4.04020073E-03
+2.40000E-06,+522.61283E-06
+2.45000E-06,-12.04020111E-03
+2.50000E-06,-12.04020111E-03
+2.55000E-06,-16.56281413E-03
+2.60000E-06,-10.53266344E-03
+2.65000E-06,-12.04020111E-03
+2.70000E-06,-12.04020111E-03
+2.75000E-06,-12.04020111E-03
+2.80000E-06,-12.04020111E-03
+2.85000E-06,-4.00000019E-03
+2.90000E-06,+4.04020073E-03
+2.95000E-06,+4.04020073E-03
+3.00000E-06,+12.08040165E-03
+3.05000E-06,+12.08040165E-03
+3.10000E-06,+8.56281375E-03
+3.15000E-06,-4.00000019E-03
+3.20000E-06,-20.08040203E-03
+3.25000E-06,-23.09547737E-03
+3.30000E-06,-32.64321596E-03
+3.35000E-06,-39.17587921E-03
+3.40000E-06,-52.24120570E-03
+3.45000E-06,-60.28140662E-03
+3.50000E-06,-60.28140662E-03
+3.55000E-06,-48.72361780E-03
+3.60000E-06,-36.16080387E-03
+3.65000E-06,-12.04020111E-03
+3.70000E-06,+8.56281375E-03
+3.75000E-06,+23.13567791E-03
+3.80000E-06,+39.21607975E-03
+3.85000E-06,+52.28140624E-03
+3.90000E-06,+55.29648159E-03
+3.95000E-06,+68.36180808E-03
+4.00000E-06,+68.36180808E-03
+4.05000E-06,+47.25628067E-03
+4.10000E-06,+24.64321558E-03
+4.15000E-06,-7.01507553E-03
+4.20000E-06,-48.72361780E-03
+4.25000E-06,-84.40200938E-03
+4.30000E-06,-116.56281305E-03
+4.35000E-06,-137.16582791E-03
+4.40000E-06,-148.72361673E-03
+4.45000E-06,-149.72864185E-03
+4.50000E-06,-140.68341581E-03
+4.55000E-06,-116.56281305E-03
+4.60000E-06,-80.88442148E-03
+4.65000E-06,-20.08040203E-03
+4.70000E-06,+36.20100440E-03
+4.75000E-06,+95.49748618E-03
+4.80000E-06,+143.73869170E-03
+4.85000E-06,+172.88442003E-03
+4.90000E-06,+193.48743488E-03
+4.95000E-06,+198.01004790E-03
+5.00000E-06,+177.40703304E-03
+5.05000E-06,+140.72361635E-03
+5.10000E-06,+71.37688342E-03
+5.15000E-06,-7.01507553E-03
+5.20000E-06,-100.48241122E-03
+5.25000E-06,-183.89949575E-03
+5.30000E-06,-251.73869100E-03
+5.35000E-06,-293.44723327E-03
+5.40000E-06,-309.52763511E-03
+5.45000E-06,-304.50250953E-03
+5.50000E-06,-277.36683143E-03
+5.55000E-06,-221.08542500E-03
+5.60000E-06,-124.60301397E-03
+5.65000E-06,-16.56281413E-03
+5.70000E-06,+95.49748618E-03
+5.75000E-06,+209.56783672E-03
+5.80000E-06,+285.44723289E-03
+5.85000E-06,+333.68843840E-03
+5.90000E-06,+344.74371467E-03
+5.95000E-06,+344.74371467E-03
+6.00000E-06,+312.58291099E-03
+6.05000E-06,+237.20602738E-03
+6.10000E-06,+121.12562661E-03
+6.15000E-06,-15.05527645E-03
+6.20000E-06,-153.24622975E-03
+6.25000E-06,-265.80904261E-03
+6.30000E-06,-360.78391597E-03
+6.35000E-06,-422.09044797E-03
+6.40000E-06,-441.18592516E-03
+6.45000E-06,-438.17084981E-03
+6.50000E-06,-389.92964430E-03
+6.55000E-06,-304.50250953E-03
+6.60000E-06,-173.84924460E-03
+6.65000E-06,-24.60301504E-03
+6.70000E-06,+119.61808894E-03
+6.75000E-06,+245.24622830E-03
+6.80000E-06,+348.26130257E-03
+6.85000E-06,+417.10552294E-03
+6.90000E-06,+454.29145219E-03
+6.95000E-06,+446.25125127E-03
+7.00000E-06,+402.53265877E-03
+7.05000E-06,+306.05024775E-03
+7.10000E-06,+177.40703304E-03
+7.15000E-06,+28.16080349E-03
+7.20000E-06,-127.61808932E-03
+7.25000E-06,-259.77889192E-03
+7.30000E-06,-373.84924246E-03
+7.35000E-06,-457.26632699E-03
+7.40000E-06,-494.45225624E-03
+7.45000E-06,-497.46733159E-03
+7.50000E-06,-462.29145257E-03
+7.55000E-06,-378.37185548E-03
+7.60000E-06,-261.28642960E-03
+7.65000E-06,-108.52261214E-03
+7.70000E-06,+39.21607975E-03
+7.75000E-06,+188.96482186E-03
+7.80000E-06,+309.56783565E-03
+7.85000E-06,+409.06532202E-03
+7.90000E-06,+449.26632661E-03
+7.95000E-06,+462.33165311E-03
+8.00000E-06,+446.25125127E-03
+8.05000E-06,+386.45225693E-03
+8.10000E-06,+281.92964499E-03
+8.15000E-06,+145.24622937E-03
+8.20000E-06,-4.00000019E-03
+8.25000E-06,-148.72361673E-03
+8.30000E-06,-288.42210770E-03
+8.35000E-06,-389.92964430E-03
+8.40000E-06,-454.25125165E-03
+8.45000E-06,-482.89446742E-03
+8.50000E-06,-482.89446742E-03
+8.55000E-06,-446.21105073E-03
+8.60000E-06,-365.80904154E-03
+8.65000E-06,-249.72864077E-03
+8.70000E-06,-121.08542607E-03
+8.75000E-06,+28.16080349E-03
+8.80000E-06,+156.80401819E-03
+8.85000E-06,+264.34170548E-03
+8.90000E-06,+344.74371467E-03
+8.95000E-06,+386.45225693E-03
+9.00000E-06,+414.09044759E-03
+9.05000E-06,+398.01004576E-03
+9.10000E-06,+362.33165418E-03
+9.15000E-06,+277.40703197E-03
+9.20000E-06,+177.40703304E-03
+9.25000E-06,+47.25628067E-03
+9.30000E-06,-80.88442148E-03
+9.35000E-06,-196.96482224E-03
+9.40000E-06,-281.88944445E-03
+9.45000E-06,-341.68843878E-03
+9.50000E-06,-373.84924246E-03
+9.55000E-06,-394.45225731E-03
+9.60000E-06,-373.84924246E-03
+9.65000E-06,-330.13064996E-03
+9.70000E-06,-265.80904261E-03
+9.75000E-06,-172.84421949E-03
+9.80000E-06,-72.84422056E-03
+9.85000E-06,+23.13567791E-03
+9.90000E-06,+111.57788802E-03
+9.95000E-06,+183.93969629E-03
+10.00000E-06,+221.12562554E-03
+10.05000E-06,+248.26130364E-03
+10.10000E-06,+253.28642922E-03
+10.15000E-06,+237.20602738E-03
+10.20000E-06,+229.16582646E-03
+10.25000E-06,+181.92964606E-03
+10.30000E-06,+116.60301359E-03
+10.35000E-06,+48.76381834E-03
+10.40000E-06,-23.09547737E-03
+10.45000E-06,-87.41708472E-03
+10.50000E-06,-132.64321489E-03
+10.55000E-06,-156.76381765E-03
+10.60000E-06,-164.80401857E-03
+10.65000E-06,-175.85929483E-03
+10.70000E-06,-172.84421949E-03
+10.75000E-06,-167.81909391E-03
+10.80000E-06,-132.64321489E-03
+10.85000E-06,-100.48241122E-03
+10.90000E-06,-63.29648197E-03
+10.95000E-06,-16.56281413E-03
+11.00000E-06,+16.60301466E-03
+11.05000E-06,+36.20100440E-03
+11.10000E-06,+47.25628067E-03
+11.15000E-06,+55.29648159E-03
+11.20000E-06,+56.80401926E-03
+11.25000E-06,+63.33668251E-03
+11.30000E-06,+55.29648159E-03
+11.35000E-06,+40.72361742E-03
+11.40000E-06,+28.16080349E-03
+11.45000E-06,+12.08040165E-03
+11.50000E-06,-12.04020111E-03
+11.55000E-06,-23.09547737E-03
+11.60000E-06,-31.13567829E-03
+11.65000E-06,-36.16080387E-03
+11.70000E-06,-48.72361780E-03
+11.75000E-06,-44.20100478E-03
+11.80000E-06,-48.72361780E-03
+11.85000E-06,-52.24120570E-03
+11.90000E-06,-44.20100478E-03
+11.95000E-06,-44.20100478E-03
+12.00000E-06,-32.64321596E-03
+12.05000E-06,-24.60301504E-03
+12.10000E-06,-20.08040203E-03
+12.15000E-06,-8.52261321E-03
+12.20000E-06,-7.01507553E-03
+12.25000E-06,-4.00000019E-03
+12.30000E-06,-7.01507553E-03
+12.35000E-06,-4.00000019E-03
+12.40000E-06,+522.61283E-06
+12.45000E-06,+7.05527607E-03
+12.50000E-06,+7.05527607E-03
+12.55000E-06,+4.04020073E-03
+12.60000E-06,+4.04020073E-03
+12.65000E-06,+7.05527607E-03
+12.70000E-06,-984.92485E-06
+12.75000E-06,-4.00000019E-03
+12.80000E-06,-12.04020111E-03
+12.85000E-06,-16.56281413E-03
+12.90000E-06,-20.08040203E-03
+12.95000E-06,-28.12060295E-03
+13.00000E-06,-36.16080387E-03
+13.05000E-06,-44.20100478E-03
+13.10000E-06,-47.21608013E-03
+13.15000E-06,-52.24120570E-03
+13.20000E-06,-56.76381872E-03
+13.25000E-06,-52.24120570E-03
+13.30000E-06,-52.24120570E-03
+13.35000E-06,-36.16080387E-03
+13.40000E-06,-28.12060295E-03
+13.45000E-06,-12.04020111E-03
+13.50000E-06,+12.08040165E-03
+13.55000E-06,+32.68341650E-03
+13.60000E-06,+47.25628067E-03
+13.65000E-06,+60.32160716E-03
+13.70000E-06,+63.33668251E-03
+13.75000E-06,+76.40200900E-03
+13.80000E-06,+63.33668251E-03
+13.85000E-06,+52.28140624E-03
+13.90000E-06,+36.20100440E-03
+13.95000E-06,+7.05527607E-03
+14.00000E-06,-28.12060295E-03
+14.05000E-06,-72.84422056E-03
+14.10000E-06,-103.49748656E-03
+14.15000E-06,-132.64321489E-03
+14.20000E-06,-153.24622975E-03
+14.25000E-06,-156.76381765E-03
+14.30000E-06,-145.20602883E-03
+14.35000E-06,-132.64321489E-03
+14.40000E-06,-95.45728564E-03
+14.45000E-06,-52.24120570E-03
+14.50000E-06,+8.56281375E-03
+14.55000E-06,+76.40200900E-03
+14.60000E-06,+135.69849078E-03
+14.65000E-06,+180.92462095E-03
+14.70000E-06,+205.04522370E-03
+14.75000E-06,+209.56783672E-03
+14.80000E-06,+205.04522370E-03
+14.85000E-06,+180.92462095E-03
+14.90000E-06,+135.69849078E-03
+14.95000E-06,+60.32160716E-03
+15.00000E-06,-23.09547737E-03
+15.05000E-06,-124.60301397E-03
+15.10000E-06,-205.00502316E-03
+15.15000E-06,-256.26130402E-03
+15.20000E-06,-301.48743419E-03
+15.25000E-06,-317.56783603E-03
+15.30000E-06,-293.44723327E-03
+15.35000E-06,-264.30150494E-03
+15.40000E-06,-196.96482224E-03
+15.45000E-06,-105.00502423E-03
+15.50000E-06,+12.08040165E-03
+15.55000E-06,+127.65828986E-03
+15.60000E-06,+237.20602738E-03
+15.65000E-06,+309.56783565E-03
+15.70000E-06,+349.76884024E-03
+15.75000E-06,+365.84924208E-03
+15.80000E-06,+354.29145326E-03
+15.85000E-06,+317.60803657E-03
+15.90000E-06,+229.16582646E-03
+15.95000E-06,+108.56281267E-03
+16.00000E-06,-31.13567829E-03
+16.05000E-06,-161.28643067E-03
+16.10000E-06,-281.88944445E-03
+16.15000E-06,-368.82411689E-03
+16.20000E-06,-422.09044797E-03
+16.25000E-06,-438.17084981E-03
+16.30000E-06,-430.13064889E-03
+16.35000E-06,-365.80904154E-03
+16.40000E-06,-277.36683143E-03
+16.45000E-06,-153.24622975E-03
+16.50000E-06,-4.00000019E-03
+16.55000E-06,+143.73869170E-03
+16.60000E-06,+275.89949430E-03
+16.65000E-06,+373.88944300E-03
+16.70000E-06,+441.22612569E-03
+16.75000E-06,+466.85426612E-03
+16.80000E-06,+450.77386429E-03
+16.85000E-06,+406.05024667E-03
+16.90000E-06,+302.53265984E-03
+16.95000E-06,+172.88442003E-03
+17.00000E-06,+20.12060257E-03
+17.05000E-06,-124.60301397E-03
+17.10000E-06,-269.32663051E-03
+17.15000E-06,-384.90451872E-03
+17.20000E-06,-462.29145257E-03
+17.25000E-06,-489.42713067E-03
+17.30000E-06,-494.45225624E-03
+17.35000E-06,-442.69346283E-03
+17.40000E-06,-357.76884062E-03
+17.45000E-06,-237.16582684E-03
+17.50000E-06,-88.92462240E-03
+17.55000E-06,+60.32160716E-03
+17.60000E-06,+208.06029905E-03
+17.65000E-06,+333.68843840E-03
+17.70000E-06,+417.10552294E-03
+17.75000E-06,+470.37185403E-03
+17.80000E-06,+482.93466796E-03
+17.85000E-06,+454.29145219E-03
+17.90000E-06,+384.94471926E-03
+17.95000E-06,+277.40703197E-03
+18.00000E-06,+148.76381727E-03
+18.05000E-06,-4.00000019E-03
+18.10000E-06,-156.76381765E-03
+18.15000E-06,-285.40703235E-03
+18.20000E-06,-381.88944338E-03
+18.25000E-06,-438.17084981E-03
+18.30000E-06,-478.37185441E-03
+18.35000E-06,-465.30652791E-03
+18.40000E-06,-425.10552332E-03
+18.45000E-06,-341.68843878E-03
+18.50000E-06,-237.16582684E-03
+18.55000E-06,-92.44221030E-03
+18.60000E-06,+39.21607975E-03
+18.65000E-06,+172.88442003E-03
+18.70000E-06,+277.40703197E-03
+18.75000E-06,+362.33165418E-03
+18.80000E-06,+409.06532202E-03
+18.85000E-06,+425.14572386E-03
+18.90000E-06,+398.01004576E-03
+18.95000E-06,+357.80904116E-03
+19.00000E-06,+273.88944407E-03
+19.05000E-06,+159.81909353E-03
+19.10000E-06,+40.72361742E-03
+19.15000E-06,-87.41708472E-03
+19.20000E-06,-191.93969667E-03
+19.25000E-06,-272.34170586E-03
+19.30000E-06,-336.66331321E-03
+19.35000E-06,-357.76884062E-03
+19.40000E-06,-365.80904154E-03
+19.45000E-06,-349.72863970E-03
+19.50000E-06,-304.50250953E-03
+19.55000E-06,-245.20602776E-03
+19.60000E-06,-156.76381765E-03
+19.65000E-06,-56.76381872E-03
+19.70000E-06,+48.76381834E-03
+19.75000E-06,+132.68341543E-03
+19.80000E-06,+191.97989721E-03
+19.85000E-06,+237.20602738E-03
+19.90000E-06,+248.26130364E-03
+19.95000E-06,+245.24622830E-03
+20.00000E-06,+229.16582646E-03
+20.05000E-06,+208.06029905E-03
+20.10000E-06,+164.84421911E-03
+20.15000E-06,+101.52763687E-03
+20.20000E-06,+28.16080349E-03
+20.25000E-06,-32.64321596E-03
+20.30000E-06,-92.44221030E-03
+20.35000E-06,-119.57788840E-03
+20.40000E-06,-148.72361673E-03
+20.45000E-06,-156.76381765E-03
+20.50000E-06,-153.24622975E-03
+20.55000E-06,-145.20602883E-03
+20.60000E-06,-129.12562699E-03
+20.65000E-06,-105.00502423E-03
+20.70000E-06,-63.29648197E-03
+20.75000E-06,-20.08040203E-03
+20.80000E-06,+7.05527607E-03
+20.85000E-06,+36.20100440E-03
+20.90000E-06,+52.28140624E-03
+20.95000E-06,+60.32160716E-03
+21.00000E-06,+69.36683320E-03
+21.05000E-06,+56.80401926E-03
+21.10000E-06,+48.76381834E-03
+21.15000E-06,+36.20100440E-03
+21.20000E-06,+24.64321558E-03
+21.25000E-06,+7.05527607E-03
+21.30000E-06,-12.04020111E-03
+21.35000E-06,-24.60301504E-03
+21.40000E-06,-36.16080387E-03
+21.45000E-06,-31.13567829E-03
+21.50000E-06,-44.20100478E-03
+21.55000E-06,-40.68341688E-03
+21.60000E-06,-28.12060295E-03
+21.65000E-06,-20.08040203E-03
+21.70000E-06,-20.08040203E-03
+21.75000E-06,-7.01507553E-03
+21.80000E-06,-4.00000019E-03
+21.85000E-06,+522.61283E-06
+21.90000E-06,+7.05527607E-03
+21.95000E-06,+4.04020073E-03
+22.00000E-06,-4.00000019E-03
+22.05000E-06,+522.61283E-06
+22.10000E-06,-8.52261321E-03
+22.15000E-06,-8.52261321E-03
+22.20000E-06,-12.04020111E-03
+22.25000E-06,-12.04020111E-03
+22.30000E-06,-16.56281413E-03
+22.35000E-06,-16.56281413E-03
+22.40000E-06,-4.00000019E-03
+22.45000E-06,-8.52261321E-03
+22.50000E-06,-4.00000019E-03
+22.55000E-06,+8.56281375E-03
+22.60000E-06,+8.56281375E-03
+22.65000E-06,+12.08040165E-03
+22.70000E-06,+12.08040165E-03
+22.75000E-06,+12.08040165E-03
+22.80000E-06,+8.56281375E-03
+22.85000E-06,-4.00000019E-03
+22.90000E-06,-20.08040203E-03
+22.95000E-06,-28.12060295E-03
+23.00000E-06,-44.20100478E-03
+23.05000E-06,-47.21608013E-03
+23.10000E-06,-52.24120570E-03
+23.15000E-06,-60.28140662E-03
+23.20000E-06,-60.28140662E-03
+23.25000E-06,-55.25628105E-03
+23.30000E-06,-40.68341688E-03
+23.35000E-06,-20.08040203E-03
+23.40000E-06,+7.05527607E-03
+23.45000E-06,+28.16080349E-03
+23.50000E-06,+52.28140624E-03
+23.55000E-06,+63.33668251E-03
+23.60000E-06,+68.36180808E-03
+23.65000E-06,+76.40200900E-03
+23.70000E-06,+71.37688342E-03
+23.75000E-06,+63.33668251E-03
+23.80000E-06,+32.68341650E-03
+23.85000E-06,-12.04020111E-03
+23.90000E-06,-55.25628105E-03
+23.95000E-06,-100.48241122E-03
+24.00000E-06,-129.12562699E-03
+24.05000E-06,-156.76381765E-03
+24.10000E-06,-172.84421949E-03
+24.15000E-06,-172.84421949E-03
+24.20000E-06,-159.77889299E-03
+24.25000E-06,-137.16582791E-03
+24.30000E-06,-84.40200938E-03
+24.35000E-06,-20.08040203E-03
+24.40000E-06,+47.25628067E-03
+24.45000E-06,+121.12562661E-03
+24.50000E-06,+164.84421911E-03
+24.55000E-06,+200.02009813E-03
+24.60000E-06,+217.60803764E-03
+24.65000E-06,+213.08542462E-03
+24.70000E-06,+197.00502278E-03
+24.75000E-06,+148.76381727E-03
+24.80000E-06,+72.88442110E-03
+24.85000E-06,-15.05527645E-03
+24.90000E-06,-116.56281305E-03
+24.95000E-06,-196.96482224E-03
